Data Analysis and Visualization in R - CaseStudy I
…
One interesting trend is that, among the Airlines that are the most used (AA, DL, OO, UA, WN) WN has the lowest delays and can be said to be the best airline.

Lets investigate further into why AA is the worst airline and show that:

The more the number of busy routes that an airline operates, the worse the airline in terms of delay

First, we find the TOP 10 MOST USED/BUSY routes in the dataset.

find the 161 unique routes between the origin and destination airports and we get the count (number of times) of each unique route being used.

count(flights_df %>% group_by(ORIGIN_AIRPORT,DESTINATION_AIRPORT) %>% filter(ORIGIN_AIRPORT == unique(ORIGIN_AIRPORT) & DESTINATION_AIRPORT == unique(DESTINATION_AIRPORT)))

## # A tibble: 161 x 3
## # Groups:   ORIGIN_AIRPORT, DESTINATION_AIRPORT [161]
##    ORIGIN_AIRPORT DESTINATION_AIRPORT     n
##    <fct>          <fct>               <int>
##  1 ABQ            LAX                  1834
##  2 ANC            LAX                   382
##  3 ASE            LAX                   774
##  4 ATL            LAX                  5669
##  5 AUS            LAX                  2597
##  6 BNA            LAX                  1637
##  7 BOI            LAX                   682
##  8 BOS            LAX                  4055
##  9 BWI            LAX                  1115
## 10 BZN            LAX                   143
## # ... with 151 more rows
…
Now, that we have the top 10 routes, find the unique routes of AA and its count

count(flights_df %>% group_by(AIRLINE,ORIGIN_AIRPORT,DESTINATION_AIRPORT) %>% filter(ORIGIN_AIRPORT == unique(ORIGIN_AIRPORT) & DESTINATION_AIRPORT == unique(DESTINATION_AIRPORT) & AIRLINE == "AA"))

## # A tibble: 60 x 4
## # Groups:   AIRLINE, ORIGIN_AIRPORT, DESTINATION_AIRPORT [60]
##    AIRLINE ORIGIN_AIRPORT DESTINATION_AIRPORT     n
##    <fct>   <fct>          <fct>               <int>
##  1 AA      ATL            LAX                   765
##  2 AA      AUS            LAX                  1242
##  3 AA      BNA            LAX                   621
##  4 AA      BOS            LAX                  1393
##  5 AA      CLT            LAX                   892
##  6 AA      CMH            LAX                   130
##  7 AA      DCA            LAX                   666
##  8 AA      DFW            LAX                  5500
##  9 AA      EGE            LAX                   110
## 10 AA      HNL            LAX                  1342
## # ... with 50 more rows
…
